leiwand_rv32_soc_tb.vcd
$date
	Thu Jul 25 15:37:17 2019
$end
$version
	Icarus Verilog
$end
$timescale
	1ps
$end
$scope module leiwand_rv32_core_tb $end
$var wire 4 ! mem_wen [3:0] $end
$var wire 1 " mem_valid $end
$var wire 1 # mem_ready $end
$var wire 32 $ mem_data_cpu_out [31:0] $end
$var wire 32 % mem_data_cpu_in [31:0] $end
$var wire 32 & mem_addr [31:0] $end
$var wire 1 ' debug_led $end
$var reg 1 ( clk $end
$var reg 1 ) reset $end
$var integer 32 * file [31:0] $end
$var integer 32 + file_size [31:0] $end
$var integer 32 , i [31:0] $end
$var integer 32 - j [31:0] $end
$var integer 32 . tmp [31:0] $end
$scope module cpu_core $end
$var wire 1 / alu_is_and_op $end
$var wire 1 0 alu_is_or_op $end
$var wire 1 1 alu_is_sl_op $end
$var wire 1 2 alu_is_slt_op $end
$var wire 1 3 alu_is_sltu_op $end
$var wire 1 4 alu_is_sr_op $end
$var wire 1 5 alu_is_sub_op $end
$var wire 1 6 alu_is_xor_op $end
$var wire 1 ( i_clk $end
$var wire 1 ) i_rst $end
$var wire 1 7 is_alu_logic $end
$var wire 1 8 is_alu_shift $end
$var wire 1 9 is_alu_shift_immediate $end
$var wire 1 : is_auipc_jal_op $end
$var wire 1 ; is_branch_op $end
$var wire 1 < is_load_store $end
$var wire 32 = o_mem_addr [31:0] $end
$var wire 32 > o_mem_data [31:0] $end
$var wire 1 " o_mem_valid $end
$var wire 1 ? take_branch $end
$var wire 4 @ o_mem_wen [3:0] $end
$var wire 1 # i_mem_ready $end
$var wire 32 A i_mem_data [31:0] $end
$var wire 1 ' debug_led $end
$var wire 32 B alu_result [31:0] $end
$var reg 1 C alu_branch_eq $end
$var reg 1 D alu_branch_ge $end
$var reg 1 E alu_branch_geu $end
$var reg 32 F alu_branch_op1 [31:0] $end
$var reg 32 G alu_branch_op2 [31:0] $end
$var reg 32 H alu_op1 [31:0] $end
$var reg 32 I alu_op2 [31:0] $end
$var reg 32 J alu_result_add [31:0] $end
$var reg 32 K alu_result_and [31:0] $end
$var reg 32 L alu_result_or [31:0] $end
$var reg 32 M alu_result_sl [31:0] $end
$var reg 1 N alu_result_slt $end
$var reg 1 O alu_result_sltu $end
$var reg 33 P alu_result_sr [32:0] $end
$var reg 32 Q alu_result_sub [31:0] $end
$var reg 32 R alu_result_xor [31:0] $end
$var reg 3 S cpu_stage [2:0] $end
$var reg 32 T immediate [31:0] $end
$var reg 32 U instruction [31:0] $end
$var reg 1 V is_ADD $end
$var reg 1 W is_ADDI $end
$var reg 1 X is_AND $end
$var reg 1 Y is_ANDI $end
$var reg 1 Z is_AUIPC $end
$var reg 1 [ is_BEQ $end
$var reg 1 \ is_BGE $end
$var reg 1 ] is_BGEU $end
$var reg 1 ^ is_BLT $end
$var reg 1 _ is_BLTU $end
$var reg 1 ` is_BNE $end
$var reg 1 a is_JAL $end
$var reg 1 b is_JALR $end
$var reg 1 c is_LB $end
$var reg 1 d is_LBU $end
$var reg 1 e is_LH $end
$var reg 1 f is_LHU $end
$var reg 1 g is_LUI $end
$var reg 1 h is_LW $end
$var reg 1 i is_OR $end
$var reg 1 j is_ORI $end
$var reg 1 k is_SB $end
$var reg 1 l is_SH $end
$var reg 1 m is_SLL $end
$var reg 1 n is_SLLI $end
$var reg 1 o is_SLT $end
$var reg 1 p is_SLTI $end
$var reg 1 q is_SLTIU $end
$var reg 1 r is_SLTU $end
$var reg 1 s is_SRA $end
$var reg 1 t is_SRAI $end
$var reg 1 u is_SRL $end
$var reg 1 v is_SRLI $end
$var reg 1 w is_SUB $end
$var reg 1 x is_SW $end
$var reg 1 y is_XOR $end
$var reg 1 z is_XORI $end
$var reg 1 { mem_access $end
$var reg 32 | mem_addr_out [31:0] $end
$var reg 32 } mem_data_in [31:0] $end
$var reg 32 ~ mem_data_out [31:0] $end
$var reg 1 !" mem_valid $end
$var reg 5 "" mem_wen [4:0] $end
$var reg 32 #" next_pc [31:0] $end
$var reg 32 $" pc [31:0] $end
$var reg 5 %" rd [4:0] $end
$var reg 5 &" rs1 [4:0] $end
$var reg 5 '" rs2_shamt [4:0] $end
$upscope $end
$scope module internal_rom $end
$var wire 32 (" addr [31:0] $end
$var wire 1 ( clk $end
$var wire 1 " valid $end
$var wire 32 )" wdata [31:0] $end
$var wire 4 *" wen [3:0] $end
$var reg 32 +" rdata [31:0] $end
$var reg 1 # ready $end
$upscope $end
$upscope $end
$scope module leiwand_rv32_core_tb $end
$scope module cpu_core $end
$var reg 32 ," \x[0] [31:0] $end
$upscope $end
$upscope $end
$scope module leiwand_rv32_core_tb $end
$scope module cpu_core $end
$var reg 32 -" \x[1] [31:0] $end
$upscope $end
$upscope $end
$scope module leiwand_rv32_core_tb $end
$scope module cpu_core $end
$var reg 32 ." \x[2] [31:0] $end
$upscope $end
$upscope $end
$scope module leiwand_rv32_core_tb $end
$scope module cpu_core $end
$var reg 32 /" \x[3] [31:0] $end
$upscope $end
$upscope $end
$scope module leiwand_rv32_core_tb $end
$scope module cpu_core $end
$var reg 32 0" \x[4] [31:0] $end
$upscope $end
$upscope $end
$scope module leiwand_rv32_core_tb $end
$scope module cpu_core $end
$var reg 32 1" \x[5] [31:0] $end
$upscope $end
$upscope $end
$scope module leiwand_rv32_core_tb $end
$scope module cpu_core $end
$var reg 32 2" \x[6] [31:0] $end
$upscope $end
$upscope $end
$scope module leiwand_rv32_core_tb $end
$scope module cpu_core $end
$var reg 32 3" \x[7] [31:0] $end
$upscope $end
$upscope $end
$scope module leiwand_rv32_core_tb $end
$scope module cpu_core $end
$var reg 32 4" \x[8] [31:0] $end
$upscope $end
$upscope $end
$scope module leiwand_rv32_core_tb $end
$scope module cpu_core $end
$var reg 32 5" \x[9] [31:0] $end
$upscope $end
$upscope $end
$scope module leiwand_rv32_core_tb $end
$scope module cpu_core $end
$var reg 32 6" \x[10] [31:0] $end
$upscope $end
$upscope $end
$scope module leiwand_rv32_core_tb $end
$scope module cpu_core $end
$var reg 32 7" \x[11] [31:0] $end
$upscope $end
$upscope $end
$scope module leiwand_rv32_core_tb $end
$scope module cpu_core $end
$var reg 32 8" \x[12] [31:0] $end
$upscope $end
$upscope $end
$scope module leiwand_rv32_core_tb $end
$scope module cpu_core $end
$var reg 32 9" \x[13] [31:0] $end
$upscope $end
$upscope $end
$scope module leiwand_rv32_core_tb $end
$scope module cpu_core $end
$var reg 32 :" \x[14] [31:0] $end
$upscope $end
$upscope $end
$scope module leiwand_rv32_core_tb $end
$scope module cpu_core $end
$var reg 32 ;" \x[15] [31:0] $end
$upscope $end
$upscope $end
$scope module leiwand_rv32_core_tb $end
$scope module cpu_core $end
$var reg 32 <" \x[16] [31:0] $end
$upscope $end
$upscope $end
$scope module leiwand_rv32_core_tb $end
$scope module cpu_core $end
$var reg 32 =" \x[17] [31:0] $end
$upscope $end
$upscope $end
$scope module leiwand_rv32_core_tb $end
$scope module cpu_core $end
$var reg 32 >" \x[18] [31:0] $end
$upscope $end
$upscope $end
$scope module leiwand_rv32_core_tb $end
$scope module cpu_core $end
$var reg 32 ?" \x[19] [31:0] $end
$upscope $end
$upscope $end
$scope module leiwand_rv32_core_tb $end
$scope module cpu_core $end
$var reg 32 @" \x[20] [31:0] $end
$upscope $end
$upscope $end
$scope module leiwand_rv32_core_tb $end
$scope module cpu_core $end
$var reg 32 A" \x[21] [31:0] $end
$upscope $end
$upscope $end
$scope module leiwand_rv32_core_tb $end
$scope module cpu_core $end
$var reg 32 B" \x[22] [31:0] $end
$upscope $end
$upscope $end
$scope module leiwand_rv32_core_tb $end
$scope module cpu_core $end
$var reg 32 C" \x[23] [31:0] $end
$upscope $end
$upscope $end
$scope module leiwand_rv32_core_tb $end
$scope module cpu_core $end
$var reg 32 D" \x[24] [31:0] $end
$upscope $end
$upscope $end
$scope module leiwand_rv32_core_tb $end
$scope module cpu_core $end
$var reg 32 E" \x[25] [31:0] $end
$upscope $end
$upscope $end
$scope module leiwand_rv32_core_tb $end
$scope module cpu_core $end
$var reg 32 F" \x[26] [31:0] $end
$upscope $end
$upscope $end
$scope module leiwand_rv32_core_tb $end
$scope module cpu_core $end
$var reg 32 G" \x[27] [31:0] $end
$upscope $end
$upscope $end
$scope module leiwand_rv32_core_tb $end
$scope module cpu_core $end
$var reg 32 H" \x[28] [31:0] $end
$upscope $end
$upscope $end
$scope module leiwand_rv32_core_tb $end
$scope module cpu_core $end
$var reg 32 I" \x[29] [31:0] $end
$upscope $end
$upscope $end
$scope module leiwand_rv32_core_tb $end
$scope module cpu_core $end
$var reg 32 J" \x[30] [31:0] $end
$upscope $end
$upscope $end
$scope module leiwand_rv32_core_tb $end
$scope module cpu_core $end
$var reg 32 K" \x[31] [31:0] $end
$upscope $end
$upscope $end
$enddefinitions $end
#0
$dumpvars
bx K"
bx J"
bx I"
bx H"
bx G"
bx F"
bx E"
bx D"
bx C"
bx B"
bx A"
bx @"
bx ?"
bx >"
bx ="
bx <"
bx ;"
bx :"
bx 9"
bx 8"
bx 7"
bx 6"
bx 5"
bx 4"
bx 3"
bx 2"
bx 1"
bx 0"
bx /"
bx ."
bx -"
bx ,"
bx +"
bx *"
bx )"
bx ("
bx '"
bx &"
bx %"
bx $"
bx #"
bx ""
x!"
bx ~
bx }
bx |
x{
xz
xy
xx
xw
xv
xu
xt
xs
xr
xq
xp
xo
xn
xm
xl
xk
xj
xi
xh
xg
xf
xe
xd
xc
xb
xa
x`
x_
x^
x]
x\
x[
xZ
xY
xX
xW
xV
bx U
bx T
bx S
bx R
bx Q
bx P
xO
xN
bx M
bx L
bx K
bx J
bx I
bx H
bx G
bx F
xE
xD
xC
bx B
bx A
bx @
x?
bx >
bx =
x<
x;
x:
x9
x8
x7
x6
x5
x4
x3
x2
x1
x0
x/
b100001001000 .
bx -
b100000 ,
b100001001000 +
b10000000000000000000000000000011 *
0)
0(
x'
bx &
bx %
bx $
x#
x"
bx !
$end
#2000
b0 ,"
1(
#4000
0(
#6000
b0 ,"
1(
#8000
0(
#10000
b0 ,"
1(
#12000
0(
#14000
b0 ,"
1(
#15000
1)
#16000
0(
#18000
b0 !
b0 @
b0 *"
0'
0{
b0 ""
0"
0!"
b0 $
b0 >
b0 )"
b0 ~
b0 &
b0 =
b0 ("
b0 |
b0 S
b0 U
b100000010000000000000000000000 #"
b100000010000000000000000000000 $"
b0 K"
b0 J"
b0 I"
b0 H"
b0 G"
b0 F"
b0 E"
b0 D"
b0 C"
b0 B"
b0 A"
b0 @"
b0 ?"
b0 >"
b0 ="
b0 <"
b0 ;"
b0 :"
b0 9"
b0 8"
b0 7"
b0 6"
b0 5"
b0 4"
b0 3"
b0 2"
b100000010000000000000000000000 1"
b0 0"
b0 /"
b0 ."
b0 -"
b0 ,"
1(
#20000
0(
b0 ,
0)
#22000
0#
b10000000000000011101111 %
b10000000000000011101111 A
b10000000000000011101111 +"
b0 ,"
b1 S
b100000010000000000000000000100 #"
1"
1!"
1{
b100000010000000000000000000000 &
b100000010000000000000000000000 =
b100000010000000000000000000000 ("
b100000010000000000000000000000 |
1(
#24000
0(
#26000
b0 ,"
1#
1(
#28000
0(
#30000
b0 ,"
0"
0!"
0{
b10000000000000011101111 }
1(
#32000
0(
#34000
04
0?
b1 ,
b100000 -
0<
07
08
09
01
0/
00
06
03
02
0;
1:
b0 ,"
b10 S
b10000000000000011101111 U
b100 T
0x
0l
0k
0f
0d
0h
0e
0c
0X
0i
0s
0u
0y
0r
0o
0m
05
0w
0V
0t
0v
0n
0Y
0j
0z
0q
0p
0W
0]
0_
0\
0^
0`
0[
0b
1a
0Z
0g
b1 %"
b100 '"
b0 &"
0#
1(
#36000
0(
#38000
b0 ,"
b11 S
b100 I
b100000010000000000000000000000 H
b0 G
b0 F
1(
#40000
0(
#42000
b100000010000000000000000000100 B
b0 ,"
b101 S
1E
1D
1C
b100000010000000000000000000100 J
b100000001111111111111111111100 Q
b10000001000000000000000000 P
b100000000000000000000000000 M
b0 K
b100000010000000000000000000100 L
b100000010000000000000000000100 R
0O
0N
1(
#44000
0(
#46000
b0 ,"
b0 S
b100000010000000000000000000100 -"
1(
#48000
0(
#50000
b0 ,"
b1 S
b100000010000000000000000001000 #"
b100000010000000000000000000100 $"
1"
1!"
1{
b100000010000000000000000000100 &
b100000010000000000000000000100 =
b100000010000000000000000000100 ("
b100000010000000000000000000100 |
1(
#52000
0(
#54000
1#
b10011 %
b10011 A
b10011 +"
b0 ,"
1(
#56000
0(
#58000
b0 ,"
0"
0!"
0{
b10011 }
1(
#60000
0(
#62000
b10 ,
b100000 -
0:
0#
b0 ,"
b10 S
b10011 U
b0 T
1W
0a
b0 %"
b0 '"
1(
#64000
0(
#66000
b0 ,"
b11 S
b0 I
b0 H
1(
#68000
0(
#70000
b0 B
b0 ,"
b101 S
b0 J
b0 Q
b0 P
b0 M
b0 L
b0 R
1(
#72000
0(
#74000
b0 S
b0 ,"
1(
#76000
0(
#78000
b0 ,"
b1 S
b100000010000000000000000001100 #"
b100000010000000000000000001000 $"
1"
1!"
1{
b100000010000000000000000001000 &
b100000010000000000000000001000 =
b100000010000000000000000001000 ("
b100000010000000000000000001000 |
1(
#80000
0(
#82000
b0 ,"
1#
b11111111000000010000000010110111 %
b11111111000000010000000010110111 A
b11111111000000010000000010110111 +"
1(
#84000
0(
#86000
b0 ,"
0"
0!"
0{
b11111111000000010000000010110111 }
1(
#88000
0(
#90000
b11 ,
b100000 -
b0 ,"
b10 S
b11111111000000010000000010110111 U
b11111111000000010000000000000000 T
0W
1g
b1 %"
b10000 '"
b10 &"
0#
1(
#92000
0(
#94000
b0 ,"
b11 S
b11111111000000010000000000000000 I
1(
#96000
0(
#98000
b11111111000000010000000000000000 B
b0 ,"
b101 S
b11111111000000010000000000000000 J
b111111110000000000000000 Q
b11111111000000010000000000000000 L
b11111111000000010000000000000000 R
1O
1(
#100000
0(
#102000
b0 ,"
b0 S
b11111111000000010000000000000000 -"
1(
#104000
0(
#106000
b0 ,"
b1 S
b100000010000000000000000010000 #"
b100000010000000000000000001100 $"
1"
1!"
1{
b100000010000000000000000001100 &
b100000010000000000000000001100 =
b100000010000000000000000001100 ("
b100000010000000000000000001100 |
1(
#108000
0(
#110000
1#
b11110000000000001000000010010011 %
b11110000000000001000000010010011 A
b11110000000000001000000010010011 +"
b0 ,"
1(
#112000
0(
#114000
b0 ,"
0"
0!"
0{
b11110000000000001000000010010011 }
1(
#116000
0(
#118000
b100 ,
b100000 -
0#
b0 ,"
b10 S
b11110000000000001000000010010011 U
b11111111111111111111111100000000 T
1W
0g
b0 '"
b1 &"
1(
#120000
0(
#122000
b0 ,"
b11 S
b11111111111111111111111100000000 I
b11111111000000010000000000000000 H
b11111111000000010000000000000000 F
1(
#124000
0(
#126000
b11111111000000001111111100000000 B
b0 ,"
b101 S
0D
0C
b11111111000000001111111100000000 J
b11111111000000010000000100000000 Q
b11111111000000010000000000000000 P
b11111111000000010000000000000000 M
b11111111000000010000000000000000 K
b11111111111111111111111100000000 L
b111111101111111100000000 R
1N
1(
#128000
0(
#130000
b0 ,"
b0 S
b11111111000000001111111100000000 -"
1(
#132000
0(
#134000
b0 ,"
b1 S
b100000010000000000000000010100 #"
b100000010000000000000000010000 $"
1"
1!"
1{
b100000010000000000000000010000 &
b100000010000000000000000010000 =
b100000010000000000000000010000 ("
b100000010000000000000000010000 |
1(
#136000
0(
#138000
b0 ,"
1#
b1111000011110001000100110111 %
b1111000011110001000100110111 A
b1111000011110001000100110111 +"
1(
#140000
0(
#142000
b0 ,"
0"
0!"
0{
b1111000011110001000100110111 }
1(
#144000
0(
#146000
b101 ,
b100000 -
b0 ,"
b10 S
b1111000011110001000100110111 U
b1111000011110001000000000000 T
0W
1g
b10 %"
b10000 '"
b11110 &"
0#
1(
#148000
0(
#150000
b0 ,"
b11 S
b1111000011110001000000000000 I
b0 H
b0 F
1(
#152000
0(
#154000
b1111000011110001000000000000 B
b0 ,"
b101 S
1D
1C
b1111000011110001000000000000 J
b11110000111100001111000000000000 Q
b0 P
b0 M
b0 K
b1111000011110001000000000000 L
b1111000011110001000000000000 R
1(
#156000
0(
#158000
b0 ,"
b0 S
b1111000011110001000000000000 ."
1(
#160000
0(
#162000
b0 ,"
b1 S
b100000010000000000000000011000 #"
b100000010000000000000000010100 $"
1"
1!"
1{
b100000010000000000000000010100 &
b100000010000000000000000010100 =
b100000010000000000000000010100 ("
b100000010000000000000000010100 |
1(
#164000
0(
#166000
1#
b11110000111100010000000100010011 %
b11110000111100010000000100010011 A
b11110000111100010000000100010011 +"
b0 ,"
1(
#168000
0(
#170000
b0 ,"
0"
0!"
0{
b11110000111100010000000100010011 }
1(
#172000
0(
#174000
b110 ,
b100000 -
0#
b0 ,"
b10 S
b11110000111100010000000100010011 U
b11111111111111111111111100001111 T
1W
0g
b1111 '"
b10 &"
1(
#176000
0(
#178000
b0 ,"
b11 S
b11111111111111111111111100001111 I
b1111000011110001000000000000 H
b1111000011110001000000000000 F
1(
#180000
0(
#182000
b1111000011110000111100001111 B
b0 ,"
b101 S
0C
b1111000011110000111100001111 J
b1111000011110001000011110001 Q
b1111000011110 P
b10001000000000000000000000000000 M
b1111000011110001000000000000 K
b11111111111111111111111100001111 L
b11110000111100001110111100001111 R
0N
1(
#184000
0(
#186000
b0 ,"
b0 S
b1111000011110000111100001111 ."
1(
#188000
0(
#190000
b0 ,"
b1 S
b100000010000000000000000011100 #"
b100000010000000000000000011000 $"
1"
1!"
1{
b100000010000000000000000011000 &
b100000010000000000000000011000 =
b100000010000000000000000011000 ("
b100000010000000000000000011000 |
1(
#192000
0(
#194000
b0 ,"
1#
b1000001111111100110011 %
b1000001111111100110011 A
b1000001111111100110011 +"
1(
#196000
0(
#198000
b0 ,"
0"
0!"
0{
b1000001111111100110011 }
1(
#200000
0(
#202000
b1111000011110001000000000000 B
b111 ,
b100000 -
1/
17
b0 ,"
b10 S
b1000001111111100110011 U
b10 T
1X
0W
b11110 %"
b10 '"
b1 &"
0#
1(
#204000
0(
#206000
b0 ,"
b11 S
b1111000011110000111100001111 I
b11111111000000001111111100000000 H
b1111000011110000111100001111 G
b11111111000000001111111100000000 F
1(
#208000
0(
#210000
b1111000000000000111100000000 B
b0 ,"
b101 S
0D
b1110000100000000111000001111 J
b11101111111100011110111111110001 Q
b11111111000000001 P
b1111111100000000000000000000000 M
b1111000000000000111100000000 K
b11111111000011111111111100001111 L
b11110000000011111111000000001111 R
0O
1N
1(
#212000
0(
#214000
b0 ,"
b0 S
b1111000000000000111100000000 J"
1(
#216000
0(
#218000
b0 ,"
b1 S
b100000010000000000000000100000 #"
b100000010000000000000000011100 $"
1"
1!"
1{
b100000010000000000000000011100 &
b100000010000000000000000011100 =
b100000010000000000000000011100 ("
b100000010000000000000000011100 |
1(
#220000
0(
#222000
1#
b1111000000000001111010110111 %
b1111000000000001111010110111 A
b1111000000000001111010110111 +"
b0 ,"
1(
#224000
0(
#226000
b0 ,"
0"
0!"
0{
b1111000000000001111010110111 }
1(
#228000
0(
#230000
b1110000100000000111000001111 B
b1000 ,
b100000 -
0/
07
0#
b0 ,"
b10 S
b1111000000000001111010110111 U
b1111000000000001000000000000 T
0X
1g
b11101 %"
b10000 '"
b0 &"
1(
#232000
0(
#234000
b0 ,"
b11 S
b1111000000000001000000000000 I
b0 H
b0 G
b0 F
1(
#236000
0(
#238000
b1111000000000001000000000000 B
b0 ,"
b101 S
1D
1C
b1111000000000001000000000000 J
b11110000111111111111000000000000 Q
b0 P
b0 M
b0 K
b1111000000000001000000000000 L
b1111000000000001000000000000 R
1O
1(
#240000
0(
#242000
b0 ,"
b0 S
b1111000000000001000000000000 I"
1(
#244000
0(
#246000
b0 ,"
b1 S
b100000010000000000000000100100 #"
b100000010000000000000000100000 $"
1"
1!"
1{
b100000010000000000000000100000 &
b100000010000000000000000100000 =
b100000010000000000000000100000 ("
b100000010000000000000000100000 |
1(
#248000
0(
#250000
b0 ,"
1#
b11110000000011101000111010010011 %
b11110000000011101000111010010011 A
b11110000000011101000111010010011 +"
1(
#252000
0(
#254000
b0 ,"
0"
0!"
0{
b11110000000011101000111010010011 }
1(
#256000
0(
#258000
b1001 ,
b100000 -
b0 ,"
b10 S
b11110000000011101000111010010011 U
b11111111111111111111111100000000 T
1W
0g
b0 '"
b11101 &"
0#
1(
#260000
0(
#262000
b0 ,"
b11 S
b11111111111111111111111100000000 I
b1111000000000001000000000000 H
b1111000000000001000000000000 F
1(
#264000
0(
#266000
b1111000000000000111100000000 B
b0 ,"
b101 S
0C
b1111000000000000111100000000 J
b1111000000000001000100000000 Q
b1111000000000001000000000000 P
b1111000000000001000000000000 M
b1111000000000001000000000000 K
b11111111111111111111111100000000 L
b11110000111111111110111100000000 R
0N
1(
#268000
0(
#270000
b0 ,"
b0 S
b1111000000000000111100000000 I"
1(
#272000
0(
#274000
b0 ,"
b1 S
b100000010000000000000000101000 #"
b100000010000000000000000100100 $"
1"
1!"
1{
b100000010000000000000000100100 &
b100000010000000000000000100100 =
b100000010000000000000000100100 ("
b100000010000000000000000100100 |
1(
#276000
0(
#278000
1#
b1000000000000110010011 %
b1000000000000110010011 A
b1000000000000110010011 +"
b0 ,"
1(
#280000
0(
#282000
b0 ,"
0"
0!"
0{
b1000000000000110010011 }
1(
#284000
0(
#286000
b1010 ,
b100000 -
0#
b0 ,"
b10 S
b1000000000000110010011 U
b10 T
b11 %"
b10 '"
b0 &"
1(
#288000
0(
#290000
b0 ,"
b11 S
b10 I
b0 H
b1111000011110000111100001111 G
b0 F
1(
#292000
0(
#294000
b10 B
b0 ,"
b101 S
0E
0D
b10 J
b11111111111111111111111111111110 Q
b0 P
b0 M
b0 K
b10 L
b10 R
1N
1(
#296000
0(
#298000
b0 ,"
b0 S
b10 /"
1(
#300000
0(
#302000
b0 ,"
b1 S
b100000010000000000000000101100 #"
b100000010000000000000000101000 $"
1"
1!"
1{
b100000010000000000000000101000 &
b100000010000000000000000101000 =
b100000010000000000000000101000 ("
b100000010000000000000000101000 |
1(
#304000
0(
#306000
b0 ,"
1#
b1001001110111110001110001100011 %
b1001001110111110001110001100011 A
b1001001110111110001110001100011 +"
1(
#308000
0(
#310000
b0 ,"
0"
0!"
0{
b1001001110111110001110001100011 }
1(
#312000
0(
#314000
1?
1;
b1011 ,
b100000 -
b0 ,"
b10 S
b1001001110111110001110001100011 U
b10010011000 T
0W
1`
b11000 %"
b11101 '"
b11110 &"
0#
1(
#316000
0(
#318000
b0 ,"
b11 S
b10010011000 I
b100000010000000000000000101000 H
b1111000000000000111100000000 G
b1111000000000000111100000000 F
1(
#320000
0(
#322000
b100000010000000000010011000000 B
0?
b0 ,"
b101 S
1E
1D
1C
b100000010000000000010011000000 J
b100000001111111111101110010000 Q
b100000 P
b101000000000000000000000000000 M
b1000 K
b100000010000000000010010111000 L
b100000010000000000010010110000 R
0O
0N
1(
#324000
0(
#326000
b0 ,"
b0 S
1(
#328000
0(
#330000
b0 ,"
b1 S
b100000010000000000000000110000 #"
b100000010000000000000000101100 $"
1"
1!"
1{
b100000010000000000000000101100 &
b100000010000000000000000101100 =
b100000010000000000000000101100 ("
b100000010000000000000000101100 |
1(
#332000
0(
#334000
1#
b1111111100000001000010110111 %
b1111111100000001000010110111 A
b1111111100000001000010110111 +"
b0 ,"
1(
#336000
0(
#338000
b0 ,"
0"
0!"
0{
b1111111100000001000010110111 }
1(
#340000
0(
#342000
0;
b1100 ,
b100000 -
0#
b0 ,"
b10 S
b1111111100000001000010110111 U
b1111111100000001000000000000 T
0`
1g
b1 %"
b11111 '"
b0 &"
1(
#344000
0(
#346000
b0 ,"
b11 S
b1111111100000001000000000000 I
b0 H
b0 G
b0 F
1(
#348000
0(
#350000
b1111111100000001000000000000 B
b0 ,"
b101 S
b1111111100000001000000000000 J
b11110000000011111111000000000000 Q
b0 P
b0 M
b0 K
b1111111100000001000000000000 L
b1111111100000001000000000000 R
1O
1N
1(
#352000
0(
#354000
b0 ,"
b0 S
b1111111100000001000000000000 -"
1(
#356000
0(
#358000
b0 ,"
b1 S
b100000010000000000000000110100 #"
b100000010000000000000000110000 $"
1"
1!"
1{
b100000010000000000000000110000 &
b100000010000000000000000110000 =
b100000010000000000000000110000 ("
b100000010000000000000000110000 |
1(
#360000
0(
#362000
b0 ,"
1#
b11111111000000001000000010010011 %
b11111111000000001000000010010011 A
b11111111000000001000000010010011 +"
1(
#364000
0(
#366000
b0 ,"
0"
0!"
0{
b11111111000000001000000010010011 }
1(
#368000
0(
#370000
b1101 ,
b100000 -
b0 ,"
b10 S
b11111111000000001000000010010011 U
b11111111111111111111111111110000 T
1W
0g
b10000 '"
b1 &"
0#
1(
#372000
0(
#374000
b0 ,"
b11 S
b11111111111111111111111111110000 I
b1111111100000001000000000000 H
b1111111100000001000000000000 F
1(
#376000
0(
#378000
b1111111100000000111111110000 B
b0 ,"
b101 S
0C
b1111111100000000111111110000 J
b1111111100000001000000010000 Q
b111111110000 P
b10000000000000000000000000000 M
b1111111100000001000000000000 K
b11111111111111111111111111110000 L
b11110000000011111110111111110000 R
0N
1(
#380000
0(
#382000
b0 ,"
b0 S
b1111111100000000111111110000 -"
1(
#384000
0(
#386000
b0 ,"
b1 S
b100000010000000000000000111000 #"
b100000010000000000000000110100 $"
1"
1!"
1{
b100000010000000000000000110100 &
b100000010000000000000000110100 =
b100000010000000000000000110100 ("
b100000010000000000000000110100 |
1(
#388000
0(
#390000
1#
b11110000111100001111000100110111 %
b11110000111100001111000100110111 A
b11110000111100001111000100110111 +"
b0 ,"
1(
#392000
0(
#394000
b0 ,"
0"
0!"
0{
b11110000111100001111000100110111 }
1(
#396000
0(
#398000
b1110 ,
b100000 -
0#
b0 ,"
b10 S
b11110000111100001111000100110111 U
b11110000111100001111000000000000 T
0W
1g
b10 %"
b1111 '"
1(
#400000
0(
#402000
b0 ,"
b11 S
b11110000111100001111000000000000 I
b1111111100000000111111110000 H
b1111111100000000111111110000 F
1(
#404000
0(
#406000
b111000001111111111110000 B
b0 ,"
b101 S
b111000001111111111110000 J
b11110111111110001111111110000 Q
b1111111100000000111111110000 P
b1111111100000000111111110000 M
b111100000000000000000000 K
b11111111111100001111111111110000 L
b11111111000000001111111111110000 R
1(
#408000
0(
#410000
b0 ,"
b0 S
b11110000111100001111000000000000 ."
1(
#412000
0(
#414000
b0 ,"
b1 S
b100000010000000000000000111100 #"
b100000010000000000000000111000 $"
1"
1!"
1{
b100000010000000000000000111000 &
b100000010000000000000000111000 =
b100000010000000000000000111000 ("
b100000010000000000000000111000 |
1(
#416000
0(
#418000
b0 ,"
1#
b1111000000010000000100010011 %
b1111000000010000000100010011 A
b1111000000010000000100010011 +"
1(
#420000
0(
#422000
b0 ,"
0"
0!"
0{
b1111000000010000000100010011 }
1(
#424000
0(
#426000
b1111 ,
b100000 -
b0 ,"
b10 S
b1111000000010000000100010011 U
b11110000 T
1W
0g
b10000 '"
b10 &"
0#
1(
#428000
0(
#430000
b0 ,"
b11 S
b11110000 I
b11110000111100001111000000000000 H
b11110000111100001111000000000000 F
1(
#432000
0(
#434000
b11110000111100001111000011110000 B
b0 ,"
b101 S
0D
b11110000111100001111000011110000 J
b11110000111100001110111100010000 Q
b1111000011110000 P
b11110000000000000000000000000000 M
b0 K
b11110000111100001111000011110000 L
b11110000111100001111000011110000 R
0O
1N
1(
#436000
0(
#438000
b0 ,"
b0 S
b11110000111100001111000011110000 ."
1(
#440000
0(
#442000
b0 ,"
b1 S
b100000010000000000000001000000 #"
b100000010000000000000000111100 $"
1"
1!"
1{
b100000010000000000000000111100 &
b100000010000000000000000111100 =
b100000010000000000000000111100 ("
b100000010000000000000000111100 |
1(
#444000
0(
#446000
1#
b1000001111111100110011 %
b1000001111111100110011 A
b1000001111111100110011 +"
b0 ,"
1(
#448000
0(
#450000
b0 ,"
0"
0!"
0{
b1000001111111100110011 }
1(
#452000
0(
#454000
b0 B
b10000 ,
b100000 -
1/
17
0#
b0 ,"
b10 S
b1000001111111100110011 U
b10 T
1X
0W
b11110 %"
b10 '"
b1 &"
1(
#456000
0(
#458000
b0 ,"
b11 S
b11110000111100001111000011110000 I
b1111111100000000111111110000 H
b11110000111100001111000011110000 G
b1111111100000000111111110000 F
1(
#460000
0(
#462000
b111100000000000011110000 B
b0 ,"
b101 S
0E
1D
b111000010000000011100000 J
b11110111111110001111100000000 Q
b111111110000 P
b1111111100000000000000000000 M
b111100000000000011110000 K
b11111111111100001111111111110000 L
b11111111000000001111111100000000 R
1O
0N
1(
#464000
0(
#466000
b0 ,"
b0 S
b111100000000000011110000 J"
1(
#468000
0(
#470000
b0 ,"
b1 S
b100000010000000000000001000100 #"
b100000010000000000000001000000 $"
1"
1!"
1{
b100000010000000000000001000000 &
b100000010000000000000001000000 =
b100000010000000000000001000000 ("
b100000010000000000000001000000 |
1(
#472000
0(
#474000
b0 ,"
1#
b111100000000111010110111 %
b111100000000111010110111 A
b111100000000111010110111 +"
1(
#476000
0(
#478000
b0 ,"
0"
0!"
0{
b111100000000111010110111 }
1(
#480000
0(
#482000
b111000010000000011100000 B
b10001 ,
b100000 -
0/
07
b0 ,"
b10 S
b111100000000111010110111 U
b111100000000000000000000 T
0X
1g
b11101 %"
b1111 '"
b0 &"
0#
1(
#484000
0(
#486000
b0 ,"
b11 S
b111100000000000000000000 I
b0 H
b0 G
b0 F
1(
#488000
0(
#490000
b111100000000000000000000 B
b0 ,"
b101 S
1E
1C
b111100000000000000000000 J
b11111111000100000000000000000000 Q
b0 P
b0 M
b0 K
b111100000000000000000000 L
b111100000000000000000000 R
1N
1(
#492000
0(
#494000
b0 ,"
b0 S
b111100000000000000000000 I"
1(
#496000
0(
