leiwand_rv32_soc_tb.vcd
$date
	Thu Jun 20 19:23:25 2019
$end
$version
	Icarus Verilog
$end
$timescale
	1ps
$end
$scope module leiwand_rv32_core_tb $end
$var wire 1 ! wb_ack $end
$var wire 32 " wb_data_in [31:0] $end
$var wire 1 # wb_stall $end
$var wire 1 $ wb_stb_internal_rom $end
$var wire 1 % wb_stb_internal_sram $end
$var wire 1 & wb_we $end
$var wire 1 ' wb_stb $end
$var wire 1 ( wb_stall_sram $end
$var wire 1 ) wb_stall_rom $end
$var wire 32 * wb_data_out [31:0] $end
$var wire 32 + wb_data_in_sram [31:0] $end
$var wire 32 , wb_data_in_rom [31:0] $end
$var wire 1 - wb_cyc $end
$var wire 32 . wb_addr [31:0] $end
$var wire 1 / wb_ack_sram $end
$var wire 1 0 wb_ack_rom $end
$var reg 1 1 clk $end
$var reg 1 2 reset $end
$var integer 32 3 i [31:0] $end
$scope module cpu_core $end
$var wire 1 ! i_ack $end
$var wire 1 1 i_clk $end
$var wire 32 4 i_data [31:0] $end
$var wire 1 2 i_rst $end
$var wire 1 # i_stall $end
$var wire 32 5 o_addr [31:0] $end
$var wire 1 - o_cyc $end
$var wire 32 6 o_data [31:0] $end
$var wire 1 & o_we $end
$var wire 1 ' o_stb $end
$var reg 32 7 address_out_reg [31:0] $end
$var reg 1 8 bus_access $end
$var reg 32 9 bus_addr [31:0] $end
$var reg 32 : bus_data_in [31:0] $end
$var reg 32 ; bus_data_out [31:0] $end
$var reg 1 < bus_read_write $end
$var reg 1 = bus_ready $end
$var reg 3 > cpu_stage [2:0] $end
$var reg 1 ? cyc_out_reg $end
$var reg 32 @ data_out_reg [31:0] $end
$var reg 32 A immediate [31:0] $end
$var reg 32 B instruction [31:0] $end
$var reg 32 C pc [31:0] $end
$var reg 5 D rd [4:0] $end
$var reg 5 E rs1 [4:0] $end
$var reg 5 F rs2_shamt [4:0] $end
$var reg 1 ' stb_out_reg $end
$var reg 1 G we_out_reg $end
$upscope $end
$scope module internal_rom $end
$var wire 7 H i_addr [6:0] $end
$var wire 1 1 i_clk $end
$var wire 1 - i_cyc $end
$var wire 32 I i_dat [31:0] $end
$var wire 1 2 i_rst $end
$var wire 1 $ i_stb $end
$var wire 1 & i_we $end
$var wire 1 0 o_ack $end
$var wire 32 J o_dat [31:0] $end
$var wire 1 ) o_stall $end
$var reg 1 0 ack_out $end
$var reg 32 K data_out [31:0] $end
$var reg 2 L internal_state [1:0] $end
$var reg 1 M stall_out $end
$var reg 1 N tmp_stall $end
$upscope $end
$scope module internal_sram $end
$var wire 7 O i_addr [6:0] $end
$var wire 1 1 i_clk $end
$var wire 1 - i_cyc $end
$var wire 32 P i_dat [31:0] $end
$var wire 1 2 i_rst $end
$var wire 1 % i_stb $end
$var wire 1 & i_we $end
$var wire 1 / o_ack $end
$var wire 32 Q o_dat [31:0] $end
$var wire 1 ( o_stall $end
$var reg 1 / ack_out $end
$var reg 32 R data_out [31:0] $end
$var reg 2 S internal_state [1:0] $end
$var reg 1 T stall_out $end
$var reg 1 U tmp_stall $end
$upscope $end
$upscope $end
$scope module leiwand_rv32_core_tb $end
$scope module cpu_core $end
$var reg 32 V \x[0] [31:0] $end
$upscope $end
$upscope $end
$scope module leiwand_rv32_core_tb $end
$scope module cpu_core $end
$var reg 32 W \x[1] [31:0] $end
$upscope $end
$upscope $end
$scope module leiwand_rv32_core_tb $end
$scope module cpu_core $end
$var reg 32 X \x[2] [31:0] $end
$upscope $end
$upscope $end
$scope module leiwand_rv32_core_tb $end
$scope module cpu_core $end
$var reg 32 Y \x[3] [31:0] $end
$upscope $end
$upscope $end
$scope module leiwand_rv32_core_tb $end
$scope module cpu_core $end
$var reg 32 Z \x[4] [31:0] $end
$upscope $end
$upscope $end
$scope module leiwand_rv32_core_tb $end
$scope module cpu_core $end
$var reg 32 [ \x[5] [31:0] $end
$upscope $end
$upscope $end
$scope module leiwand_rv32_core_tb $end
$scope module cpu_core $end
$var reg 32 \ \x[6] [31:0] $end
$upscope $end
$upscope $end
$scope module leiwand_rv32_core_tb $end
$scope module cpu_core $end
$var reg 32 ] \x[7] [31:0] $end
$upscope $end
$upscope $end
$scope module leiwand_rv32_core_tb $end
$scope module cpu_core $end
$var reg 32 ^ \x[8] [31:0] $end
$upscope $end
$upscope $end
$scope module leiwand_rv32_core_tb $end
$scope module cpu_core $end
$var reg 32 _ \x[9] [31:0] $end
$upscope $end
$upscope $end
$scope module leiwand_rv32_core_tb $end
$scope module cpu_core $end
$var reg 32 ` \x[10] [31:0] $end
$upscope $end
$upscope $end
$scope module leiwand_rv32_core_tb $end
$scope module cpu_core $end
$var reg 32 a \x[11] [31:0] $end
$upscope $end
$upscope $end
$scope module leiwand_rv32_core_tb $end
$scope module cpu_core $end
$var reg 32 b \x[12] [31:0] $end
$upscope $end
$upscope $end
$scope module leiwand_rv32_core_tb $end
$scope module cpu_core $end
$var reg 32 c \x[13] [31:0] $end
$upscope $end
$upscope $end
$scope module leiwand_rv32_core_tb $end
$scope module cpu_core $end
$var reg 32 d \x[14] [31:0] $end
$upscope $end
$upscope $end
$scope module leiwand_rv32_core_tb $end
$scope module cpu_core $end
$var reg 32 e \x[15] [31:0] $end
$upscope $end
$upscope $end
$scope module leiwand_rv32_core_tb $end
$scope module cpu_core $end
$var reg 32 f \x[16] [31:0] $end
$upscope $end
$upscope $end
$scope module leiwand_rv32_core_tb $end
$scope module cpu_core $end
$var reg 32 g \x[17] [31:0] $end
$upscope $end
$upscope $end
$scope module leiwand_rv32_core_tb $end
$scope module cpu_core $end
$var reg 32 h \x[18] [31:0] $end
$upscope $end
$upscope $end
$scope module leiwand_rv32_core_tb $end
$scope module cpu_core $end
$var reg 32 i \x[19] [31:0] $end
$upscope $end
$upscope $end
$scope module leiwand_rv32_core_tb $end
$scope module cpu_core $end
$var reg 32 j \x[20] [31:0] $end
$upscope $end
$upscope $end
$scope module leiwand_rv32_core_tb $end
$scope module cpu_core $end
$var reg 32 k \x[21] [31:0] $end
$upscope $end
$upscope $end
$scope module leiwand_rv32_core_tb $end
$scope module cpu_core $end
$var reg 32 l \x[22] [31:0] $end
$upscope $end
$upscope $end
$scope module leiwand_rv32_core_tb $end
$scope module cpu_core $end
$var reg 32 m \x[23] [31:0] $end
$upscope $end
$upscope $end
$scope module leiwand_rv32_core_tb $end
$scope module cpu_core $end
$var reg 32 n \x[24] [31:0] $end
$upscope $end
$upscope $end
$scope module leiwand_rv32_core_tb $end
$scope module cpu_core $end
$var reg 32 o \x[25] [31:0] $end
$upscope $end
$upscope $end
$scope module leiwand_rv32_core_tb $end
$scope module cpu_core $end
$var reg 32 p \x[26] [31:0] $end
$upscope $end
$upscope $end
$scope module leiwand_rv32_core_tb $end
$scope module cpu_core $end
$var reg 32 q \x[27] [31:0] $end
$upscope $end
$upscope $end
$scope module leiwand_rv32_core_tb $end
$scope module cpu_core $end
$var reg 32 r \x[28] [31:0] $end
$upscope $end
$upscope $end
$scope module leiwand_rv32_core_tb $end
$scope module cpu_core $end
$var reg 32 s \x[29] [31:0] $end
$upscope $end
$upscope $end
$scope module leiwand_rv32_core_tb $end
$scope module cpu_core $end
$var reg 32 t \x[30] [31:0] $end
$upscope $end
$upscope $end
$scope module leiwand_rv32_core_tb $end
$scope module cpu_core $end
$var reg 32 u \x[31] [31:0] $end
$upscope $end
$upscope $end
$scope module leiwand_rv32_core_tb $end
$scope module internal_rom $end
$var reg 32 v \mem[0] [31:0] $end
$upscope $end
$upscope $end
$scope module leiwand_rv32_core_tb $end
$scope module internal_rom $end
$var reg 32 w \mem[1] [31:0] $end
$upscope $end
$upscope $end
$scope module leiwand_rv32_core_tb $end
$scope module internal_rom $end
$var reg 32 x \mem[2] [31:0] $end
$upscope $end
$upscope $end
$scope module leiwand_rv32_core_tb $end
$scope module internal_rom $end
$var reg 32 y \mem[3] [31:0] $end
$upscope $end
$upscope $end
$scope module leiwand_rv32_core_tb $end
$scope module internal_rom $end
$var reg 32 z \mem[4] [31:0] $end
$upscope $end
$upscope $end
$scope module leiwand_rv32_core_tb $end
$scope module internal_rom $end
$var reg 32 { \mem[5] [31:0] $end
$upscope $end
$upscope $end
$scope module leiwand_rv32_core_tb $end
$scope module internal_rom $end
$var reg 32 | \mem[6] [31:0] $end
$upscope $end
$upscope $end
$scope module leiwand_rv32_core_tb $end
$scope module internal_rom $end
$var reg 32 } \mem[7] [31:0] $end
$upscope $end
$upscope $end
$scope module leiwand_rv32_core_tb $end
$scope module internal_rom $end
$var reg 32 ~ \mem[8] [31:0] $end
$upscope $end
$upscope $end
$scope module leiwand_rv32_core_tb $end
$scope module internal_rom $end
$var reg 32 !" \mem[9] [31:0] $end
$upscope $end
$upscope $end
$scope module leiwand_rv32_core_tb $end
$scope module internal_rom $end
$var reg 32 "" \mem[10] [31:0] $end
$upscope $end
$upscope $end
$scope module leiwand_rv32_core_tb $end
$scope module internal_rom $end
$var reg 32 #" \mem[11] [31:0] $end
$upscope $end
$upscope $end
$scope module leiwand_rv32_core_tb $end
$scope module internal_rom $end
$var reg 32 $" \mem[12] [31:0] $end
$upscope $end
$upscope $end
$scope module leiwand_rv32_core_tb $end
$scope module internal_rom $end
$var reg 32 %" \mem[13] [31:0] $end
$upscope $end
$upscope $end
$scope module leiwand_rv32_core_tb $end
$scope module internal_rom $end
$var reg 32 &" \mem[14] [31:0] $end
$upscope $end
$upscope $end
$scope module leiwand_rv32_core_tb $end
$scope module internal_rom $end
$var reg 32 '" \mem[15] [31:0] $end
$upscope $end
$upscope $end
$scope module leiwand_rv32_core_tb $end
$scope module internal_rom $end
$var reg 32 (" \mem[16] [31:0] $end
$upscope $end
$upscope $end
$scope module leiwand_rv32_core_tb $end
$scope module internal_rom $end
$var reg 32 )" \mem[17] [31:0] $end
$upscope $end
$upscope $end
$scope module leiwand_rv32_core_tb $end
$scope module internal_rom $end
$var reg 32 *" \mem[18] [31:0] $end
$upscope $end
$upscope $end
$scope module leiwand_rv32_core_tb $end
$scope module internal_rom $end
$var reg 32 +" \mem[19] [31:0] $end
$upscope $end
$upscope $end
$scope module leiwand_rv32_core_tb $end
$scope module internal_rom $end
$var reg 32 ," \mem[20] [31:0] $end
$upscope $end
$upscope $end
$scope module leiwand_rv32_core_tb $end
$scope module internal_rom $end
$var reg 32 -" \mem[21] [31:0] $end
$upscope $end
$upscope $end
$scope module leiwand_rv32_core_tb $end
$scope module internal_rom $end
$var reg 32 ." \mem[22] [31:0] $end
$upscope $end
$upscope $end
$scope module leiwand_rv32_core_tb $end
$scope module internal_rom $end
$var reg 32 /" \mem[23] [31:0] $end
$upscope $end
$upscope $end
$scope module leiwand_rv32_core_tb $end
$scope module internal_rom $end
$var reg 32 0" \mem[24] [31:0] $end
$upscope $end
$upscope $end
$scope module leiwand_rv32_core_tb $end
$scope module internal_rom $end
$var reg 32 1" \mem[25] [31:0] $end
$upscope $end
$upscope $end
$scope module leiwand_rv32_core_tb $end
$scope module internal_rom $end
$var reg 32 2" \mem[26] [31:0] $end
$upscope $end
$upscope $end
$scope module leiwand_rv32_core_tb $end
$scope module internal_rom $end
$var reg 32 3" \mem[27] [31:0] $end
$upscope $end
$upscope $end
$scope module leiwand_rv32_core_tb $end
$scope module internal_rom $end
$var reg 32 4" \mem[28] [31:0] $end
$upscope $end
$upscope $end
$scope module leiwand_rv32_core_tb $end
$scope module internal_rom $end
$var reg 32 5" \mem[29] [31:0] $end
$upscope $end
$upscope $end
$scope module leiwand_rv32_core_tb $end
$scope module internal_rom $end
$var reg 32 6" \mem[30] [31:0] $end
$upscope $end
$upscope $end
$scope module leiwand_rv32_core_tb $end
$scope module internal_rom $end
$var reg 32 7" \mem[31] [31:0] $end
$upscope $end
$upscope $end
$scope module leiwand_rv32_core_tb $end
$scope module internal_rom $end
$var reg 32 8" \mem[32] [31:0] $end
$upscope $end
$upscope $end
$scope module leiwand_rv32_core_tb $end
$scope module internal_rom $end
$var reg 32 9" \mem[33] [31:0] $end
$upscope $end
$upscope $end
$scope module leiwand_rv32_core_tb $end
$scope module internal_rom $end
$var reg 32 :" \mem[34] [31:0] $end
$upscope $end
$upscope $end
$scope module leiwand_rv32_core_tb $end
$scope module internal_rom $end
$var reg 32 ;" \mem[35] [31:0] $end
$upscope $end
$upscope $end
$scope module leiwand_rv32_core_tb $end
$scope module internal_rom $end
$var reg 32 <" \mem[36] [31:0] $end
$upscope $end
$upscope $end
$scope module leiwand_rv32_core_tb $end
$scope module internal_rom $end
$var reg 32 =" \mem[37] [31:0] $end
$upscope $end
$upscope $end
$scope module leiwand_rv32_core_tb $end
$scope module internal_rom $end
$var reg 32 >" \mem[38] [31:0] $end
$upscope $end
$upscope $end
$scope module leiwand_rv32_core_tb $end
$scope module internal_rom $end
$var reg 32 ?" \mem[39] [31:0] $end
$upscope $end
$upscope $end
$scope module leiwand_rv32_core_tb $end
$scope module internal_rom $end
$var reg 32 @" \mem[40] [31:0] $end
$upscope $end
$upscope $end
$scope module leiwand_rv32_core_tb $end
$scope module internal_rom $end
$var reg 32 A" \mem[41] [31:0] $end
$upscope $end
$upscope $end
$scope module leiwand_rv32_core_tb $end
$scope module internal_rom $end
$var reg 32 B" \mem[42] [31:0] $end
$upscope $end
$upscope $end
$scope module leiwand_rv32_core_tb $end
$scope module internal_rom $end
$var reg 32 C" \mem[43] [31:0] $end
$upscope $end
$upscope $end
$scope module leiwand_rv32_core_tb $end
$scope module internal_rom $end
$var reg 32 D" \mem[44] [31:0] $end
$upscope $end
$upscope $end
$scope module leiwand_rv32_core_tb $end
$scope module internal_rom $end
$var reg 32 E" \mem[45] [31:0] $end
$upscope $end
$upscope $end
$scope module leiwand_rv32_core_tb $end
$scope module internal_rom $end
$var reg 32 F" \mem[46] [31:0] $end
$upscope $end
$upscope $end
$scope module leiwand_rv32_core_tb $end
$scope module internal_rom $end
$var reg 32 G" \mem[47] [31:0] $end
$upscope $end
$upscope $end
$scope module leiwand_rv32_core_tb $end
$scope module internal_rom $end
$var reg 32 H" \mem[48] [31:0] $end
$upscope $end
$upscope $end
$scope module leiwand_rv32_core_tb $end
$scope module internal_rom $end
$var reg 32 I" \mem[49] [31:0] $end
$upscope $end
$upscope $end
$scope module leiwand_rv32_core_tb $end
$scope module internal_rom $end
$var reg 32 J" \mem[50] [31:0] $end
$upscope $end
$upscope $end
$scope module leiwand_rv32_core_tb $end
$scope module internal_rom $end
$var reg 32 K" \mem[51] [31:0] $end
$upscope $end
$upscope $end
$scope module leiwand_rv32_core_tb $end
$scope module internal_rom $end
$var reg 32 L" \mem[52] [31:0] $end
$upscope $end
$upscope $end
$scope module leiwand_rv32_core_tb $end
$scope module internal_rom $end
$var reg 32 M" \mem[53] [31:0] $end
$upscope $end
$upscope $end
$scope module leiwand_rv32_core_tb $end
$scope module internal_rom $end
$var reg 32 N" \mem[54] [31:0] $end
$upscope $end
$upscope $end
$scope module leiwand_rv32_core_tb $end
$scope module internal_rom $end
$var reg 32 O" \mem[55] [31:0] $end
$upscope $end
$upscope $end
$scope module leiwand_rv32_core_tb $end
$scope module internal_rom $end
$var reg 32 P" \mem[56] [31:0] $end
$upscope $end
$upscope $end
$scope module leiwand_rv32_core_tb $end
$scope module internal_rom $end
$var reg 32 Q" \mem[57] [31:0] $end
$upscope $end
$upscope $end
$scope module leiwand_rv32_core_tb $end
$scope module internal_rom $end
$var reg 32 R" \mem[58] [31:0] $end
$upscope $end
$upscope $end
$scope module leiwand_rv32_core_tb $end
$scope module internal_rom $end
$var reg 32 S" \mem[59] [31:0] $end
$upscope $end
$upscope $end
$scope module leiwand_rv32_core_tb $end
$scope module internal_rom $end
$var reg 32 T" \mem[60] [31:0] $end
$upscope $end
$upscope $end
$scope module leiwand_rv32_core_tb $end
$scope module internal_rom $end
$var reg 32 U" \mem[61] [31:0] $end
$upscope $end
$upscope $end
$scope module leiwand_rv32_core_tb $end
$scope module internal_rom $end
$var reg 32 V" \mem[62] [31:0] $end
$upscope $end
$upscope $end
$scope module leiwand_rv32_core_tb $end
$scope module internal_rom $end
$var reg 32 W" \mem[63] [31:0] $end
$upscope $end
$upscope $end
$scope module leiwand_rv32_core_tb $end
$scope module internal_rom $end
$var reg 32 X" \mem[64] [31:0] $end
$upscope $end
$upscope $end
$scope module leiwand_rv32_core_tb $end
$scope module internal_rom $end
$var reg 32 Y" \mem[65] [31:0] $end
$upscope $end
$upscope $end
$scope module leiwand_rv32_core_tb $end
$scope module internal_rom $end
$var reg 32 Z" \mem[66] [31:0] $end
$upscope $end
$upscope $end
$scope module leiwand_rv32_core_tb $end
$scope module internal_rom $end
$var reg 32 [" \mem[67] [31:0] $end
$upscope $end
$upscope $end
$scope module leiwand_rv32_core_tb $end
$scope module internal_rom $end
$var reg 32 \" \mem[68] [31:0] $end
$upscope $end
$upscope $end
$scope module leiwand_rv32_core_tb $end
$scope module internal_rom $end
$var reg 32 ]" \mem[69] [31:0] $end
$upscope $end
$upscope $end
$scope module leiwand_rv32_core_tb $end
$scope module internal_rom $end
$var reg 32 ^" \mem[70] [31:0] $end
$upscope $end
$upscope $end
$scope module leiwand_rv32_core_tb $end
$scope module internal_rom $end
$var reg 32 _" \mem[71] [31:0] $end
$upscope $end
$upscope $end
$scope module leiwand_rv32_core_tb $end
$scope module internal_rom $end
$var reg 32 `" \mem[72] [31:0] $end
$upscope $end
$upscope $end
$scope module leiwand_rv32_core_tb $end
$scope module internal_rom $end
$var reg 32 a" \mem[73] [31:0] $end
$upscope $end
$upscope $end
$scope module leiwand_rv32_core_tb $end
$scope module internal_rom $end
$var reg 32 b" \mem[74] [31:0] $end
$upscope $end
$upscope $end
$scope module leiwand_rv32_core_tb $end
$scope module internal_rom $end
$var reg 32 c" \mem[75] [31:0] $end
$upscope $end
$upscope $end
$scope module leiwand_rv32_core_tb $end
$scope module internal_rom $end
$var reg 32 d" \mem[76] [31:0] $end
$upscope $end
$upscope $end
$scope module leiwand_rv32_core_tb $end
$scope module internal_rom $end
$var reg 32 e" \mem[77] [31:0] $end
$upscope $end
$upscope $end
$scope module leiwand_rv32_core_tb $end
$scope module internal_rom $end
$var reg 32 f" \mem[78] [31:0] $end
$upscope $end
$upscope $end
$scope module leiwand_rv32_core_tb $end
$scope module internal_rom $end
$var reg 32 g" \mem[79] [31:0] $end
$upscope $end
$upscope $end
$scope module leiwand_rv32_core_tb $end
$scope module internal_rom $end
$var reg 32 h" \mem[80] [31:0] $end
$upscope $end
$upscope $end
$scope module leiwand_rv32_core_tb $end
$scope module internal_rom $end
$var reg 32 i" \mem[81] [31:0] $end
$upscope $end
$upscope $end
$scope module leiwand_rv32_core_tb $end
$scope module internal_rom $end
$var reg 32 j" \mem[82] [31:0] $end
$upscope $end
$upscope $end
$scope module leiwand_rv32_core_tb $end
$scope module internal_rom $end
$var reg 32 k" \mem[83] [31:0] $end
$upscope $end
$upscope $end
$scope module leiwand_rv32_core_tb $end
$scope module internal_rom $end
$var reg 32 l" \mem[84] [31:0] $end
$upscope $end
$upscope $end
$scope module leiwand_rv32_core_tb $end
$scope module internal_rom $end
$var reg 32 m" \mem[85] [31:0] $end
$upscope $end
$upscope $end
$scope module leiwand_rv32_core_tb $end
$scope module internal_rom $end
$var reg 32 n" \mem[86] [31:0] $end
$upscope $end
$upscope $end
$scope module leiwand_rv32_core_tb $end
$scope module internal_rom $end
$var reg 32 o" \mem[87] [31:0] $end
$upscope $end
$upscope $end
$scope module leiwand_rv32_core_tb $end
$scope module internal_rom $end
$var reg 32 p" \mem[88] [31:0] $end
$upscope $end
$upscope $end
$scope module leiwand_rv32_core_tb $end
$scope module internal_rom $end
$var reg 32 q" \mem[89] [31:0] $end
$upscope $end
$upscope $end
$scope module leiwand_rv32_core_tb $end
$scope module internal_rom $end
$var reg 32 r" \mem[90] [31:0] $end
$upscope $end
$upscope $end
$scope module leiwand_rv32_core_tb $end
$scope module internal_rom $end
$var reg 32 s" \mem[91] [31:0] $end
$upscope $end
$upscope $end
$scope module leiwand_rv32_core_tb $end
$scope module internal_rom $end
$var reg 32 t" \mem[92] [31:0] $end
$upscope $end
$upscope $end
$scope module leiwand_rv32_core_tb $end
$scope module internal_rom $end
$var reg 32 u" \mem[93] [31:0] $end
$upscope $end
$upscope $end
$scope module leiwand_rv32_core_tb $end
$scope module internal_rom $end
$var reg 32 v" \mem[94] [31:0] $end
$upscope $end
$upscope $end
$scope module leiwand_rv32_core_tb $end
$scope module internal_rom $end
$var reg 32 w" \mem[95] [31:0] $end
$upscope $end
$upscope $end
$scope module leiwand_rv32_core_tb $end
$scope module internal_rom $end
$var reg 32 x" \mem[96] [31:0] $end
$upscope $end
$upscope $end
$scope module leiwand_rv32_core_tb $end
$scope module internal_rom $end
$var reg 32 y" \mem[97] [31:0] $end
$upscope $end
$upscope $end
$scope module leiwand_rv32_core_tb $end
$scope module internal_rom $end
$var reg 32 z" \mem[98] [31:0] $end
$upscope $end
$upscope $end
$scope module leiwand_rv32_core_tb $end
$scope module internal_rom $end
$var reg 32 {" \mem[99] [31:0] $end
$upscope $end
$upscope $end
$scope module leiwand_rv32_core_tb $end
$scope module internal_rom $end
$var reg 32 |" \mem[100] [31:0] $end
$upscope $end
$upscope $end
$scope module leiwand_rv32_core_tb $end
$scope module internal_rom $end
$var reg 32 }" \mem[101] [31:0] $end
$upscope $end
$upscope $end
$scope module leiwand_rv32_core_tb $end
$scope module internal_rom $end
$var reg 32 ~" \mem[102] [31:0] $end
$upscope $end
$upscope $end
$scope module leiwand_rv32_core_tb $end
$scope module internal_rom $end
$var reg 32 !# \mem[103] [31:0] $end
$upscope $end
$upscope $end
$scope module leiwand_rv32_core_tb $end
$scope module internal_rom $end
$var reg 32 "# \mem[104] [31:0] $end
$upscope $end
$upscope $end
$scope module leiwand_rv32_core_tb $end
$scope module internal_rom $end
$var reg 32 ## \mem[105] [31:0] $end
$upscope $end
$upscope $end
$scope module leiwand_rv32_core_tb $end
$scope module internal_rom $end
$var reg 32 $# \mem[106] [31:0] $end
$upscope $end
$upscope $end
$scope module leiwand_rv32_core_tb $end
$scope module internal_rom $end
$var reg 32 %# \mem[107] [31:0] $end
$upscope $end
$upscope $end
$scope module leiwand_rv32_core_tb $end
$scope module internal_rom $end
$var reg 32 &# \mem[108] [31:0] $end
$upscope $end
$upscope $end
$scope module leiwand_rv32_core_tb $end
$scope module internal_rom $end
$var reg 32 '# \mem[109] [31:0] $end
$upscope $end
$upscope $end
$scope module leiwand_rv32_core_tb $end
$scope module internal_rom $end
$var reg 32 (# \mem[110] [31:0] $end
$upscope $end
$upscope $end
$scope module leiwand_rv32_core_tb $end
$scope module internal_rom $end
$var reg 32 )# \mem[111] [31:0] $end
$upscope $end
$upscope $end
$scope module leiwand_rv32_core_tb $end
$scope module internal_rom $end
$var reg 32 *# \mem[112] [31:0] $end
$upscope $end
$upscope $end
$scope module leiwand_rv32_core_tb $end
$scope module internal_rom $end
$var reg 32 +# \mem[113] [31:0] $end
$upscope $end
$upscope $end
$scope module leiwand_rv32_core_tb $end
$scope module internal_rom $end
$var reg 32 ,# \mem[114] [31:0] $end
$upscope $end
$upscope $end
$scope module leiwand_rv32_core_tb $end
$scope module internal_rom $end
$var reg 32 -# \mem[115] [31:0] $end
$upscope $end
$upscope $end
$scope module leiwand_rv32_core_tb $end
$scope module internal_rom $end
$var reg 32 .# \mem[116] [31:0] $end
$upscope $end
$upscope $end
$scope module leiwand_rv32_core_tb $end
$scope module internal_rom $end
$var reg 32 /# \mem[117] [31:0] $end
$upscope $end
$upscope $end
$scope module leiwand_rv32_core_tb $end
$scope module internal_rom $end
$var reg 32 0# \mem[118] [31:0] $end
$upscope $end
$upscope $end
$scope module leiwand_rv32_core_tb $end
$scope module internal_rom $end
$var reg 32 1# \mem[119] [31:0] $end
$upscope $end
$upscope $end
$scope module leiwand_rv32_core_tb $end
$scope module internal_rom $end
$var reg 32 2# \mem[120] [31:0] $end
$upscope $end
$upscope $end
$scope module leiwand_rv32_core_tb $end
$scope module internal_rom $end
$var reg 32 3# \mem[121] [31:0] $end
$upscope $end
$upscope $end
$scope module leiwand_rv32_core_tb $end
$scope module internal_rom $end
$var reg 32 4# \mem[122] [31:0] $end
$upscope $end
$upscope $end
$scope module leiwand_rv32_core_tb $end
$scope module internal_rom $end
$var reg 32 5# \mem[123] [31:0] $end
$upscope $end
$upscope $end
$scope module leiwand_rv32_core_tb $end
$scope module internal_rom $end
$var reg 32 6# \mem[124] [31:0] $end
$upscope $end
$upscope $end
$scope module leiwand_rv32_core_tb $end
$scope module internal_rom $end
$var reg 32 7# \mem[125] [31:0] $end
$upscope $end
$upscope $end
$scope module leiwand_rv32_core_tb $end
$scope module internal_rom $end
$var reg 32 8# \mem[126] [31:0] $end
$upscope $end
$upscope $end
$scope module leiwand_rv32_core_tb $end
$scope module internal_rom $end
$var reg 32 9# \mem[127] [31:0] $end
$upscope $end
$upscope $end
$enddefinitions $end
#0
$dumpvars
bx 9#
bx 8#
bx 7#
bx 6#
bx 5#
bx 4#
bx 3#
bx 2#
bx 1#
bx 0#
bx /#
bx .#
bx -#
bx ,#
bx +#
bx *#
bx )#
bx (#
bx '#
bx &#
bx %#
bx $#
bx ##
bx "#
bx !#
bx ~"
bx }"
bx |"
bx {"
bx z"
bx y"
bx x"
bx w"
bx v"
bx u"
bx t"
bx s"
bx r"
bx q"
bx p"
bx o"
bx n"
bx m"
bx l"
bx k"
bx j"
bx i"
bx h"
bx g"
bx f"
bx e"
bx d"
bx c"
bx b"
bx a"
bx `"
bx _"
bx ^"
bx ]"
bx \"
bx ["
bx Z"
bx Y"
bx X"
bx W"
bx V"
bx U"
bx T"
bx S"
bx R"
bx Q"
bx P"
bx O"
bx N"
bx M"
bx L"
bx K"
bx J"
bx I"
bx H"
bx G"
bx F"
bx E"
bx D"
bx C"
bx B"
bx A"
bx @"
bx ?"
bx >"
bx ="
bx <"
bx ;"
bx :"
bx 9"
bx 8"
bx 7"
bx 6"
bx 5"
bx 4"
bx 3"
bx 2"
bx 1"
bx 0"
bx /"
bx ."
bx -"
bx ,"
bx +"
bx *"
bx )"
bx ("
bx '"
bx &"
bx %"
bx $"
bx #"
bx ""
bx !"
bx ~
bx }
bx |
bx {
bx z
bx y
bx x
bx w
bx v
bx u
bx t
bx s
bx r
bx q
bx p
bx o
bx n
bx m
bx l
bx k
bx j
bx i
bx h
bx g
bx f
bx e
bx d
bx c
bx b
bx a
bx `
bx _
bx ^
bx ]
bx \
bx [
bx Z
bx Y
bx X
bx W
bx V
xU
xT
bx S
bx R
bx Q
bx P
bx O
xN
xM
bx L
bx K
bx J
bx I
bx H
xG
bx F
bx E
bx D
bx C
bx B
bx A
bx @
x?
bx >
x=
x<
bx ;
bx :
bx 9
x8
bx 7
bx 6
bx 5
bx 4
b10000000 3
02
01
x0
x/
bx .
x-
bx ,
bx +
bx *
x)
x(
x'
x&
x%
x$
x#
bx "
x!
$end
#2000
b0 V
11
#4000
01
#6000
b0 V
11
#8000
01
#10000
b0 V
11
#12000
01
#14000
b0 V
11
#15000
12
#16000
01
#18000
0$
0%
1#
b0 H
b0 O
1(
b0 "
b0 4
1)
0!
b0 >
b0 A
b0 D
b0 F
b0 E
b0 B
b10000000000000000000000000000 C
b0 u
b0 t
b0 s
b0 r
b0 q
b0 p
b0 o
b0 n
b0 m
b0 l
b0 k
b0 j
b0 i
b0 h
b0 g
b0 f
b0 e
b0 d
b0 c
b0 b
b0 a
b0 `
b0 _
b0 ^
b0 ]
b0 \
b0 [
b0 Z
b0 Y
b0 X
b0 W
b0 V
b0 *
b0 6
b0 I
b0 P
b0 @
b0 .
b0 5
b0 7
0-
0?
0&
0G
b0 9
0<
b0 :
b0 ;
0=
08
b0 S
b0 +
b0 Q
b0 R
1U
1T
0/
b0 L
b0 ,
b0 J
b0 K
1N
1M
00
11
#20000
01
02
#22000
b1 L
b1 S
b0 V
11
#24000
01
#26000
0#
0(
0)
b0 V
0T
0M
11
#28000
01
#30000
1=
b0 V
11
#32000
01
#34000
b0 V
b1 >
18
b10000000000000000000000000000 9
11
#36000
01
#38000
1#
1(
1%
0=
1-
1?
1'
b10000000000000000000000000000 .
b10000000000000000000000000000 5
b10000000000000000000000000000 7
b0 V
11
#40000
01
#42000
0%
b0 V
0'
b10 S
0U
1T
11
#44000
01
#46000
0#
1!
0(
b1000010 "
b1000010 4
b1 S
1U
1/
0T
b1000010 +
b1000010 Q
b1000010 R
b0 V
11
#48000
01
#50000
b0 "
b0 4
0!
b0 V
08
0-
0?
b0 .
b0 5
b0 7
b1000010 :
b0 +
b0 Q
b0 R
0/
11
#52000
01
#54000
1=
b0 V
11
#56000
01
#58000
b0 V
b10 >
b1000010 B
11
#60000
01
#62000
b0 V
b0 >
11
#64000
01
#66000
b0 V
b1 >
18
11
#68000
01
#70000
1#
1(
1%
0=
1-
1?
1'
b10000000000000000000000000000 .
b10000000000000000000000000000 5
b10000000000000000000000000000 7
b0 V
11
#72000
01
#74000
0%
b0 V
0'
b10 S
0U
1T
11
#76000
01
#78000
0#
1!
0(
b1000010 "
b1000010 4
b1 S
1U
1/
0T
b1000010 +
b1000010 Q
b1000010 R
b0 V
11
#80000
01
#82000
b0 "
b0 4
0!
b0 V
08
0-
0?
b0 .
b0 5
b0 7
b0 +
b0 Q
b0 R
0/
11
#84000
01
#86000
1=
b0 V
11
#88000
01
#90000
b0 V
b10 >
11
#92000
01
#94000
b0 V
b0 >
11
#96000
01
#98000
b0 V
b1 >
18
11
#100000
01
#102000
1#
1(
1%
0=
1-
1?
1'
b10000000000000000000000000000 .
b10000000000000000000000000000 5
b10000000000000000000000000000 7
b0 V
11
#104000
01
#106000
0%
b0 V
0'
b10 S
0U
1T
11
#108000
01
